%YAML 1.1
%TAG !u! tag:unity3d.com,2011:
--- !u!1045 &1
EditorBuildSettings:
  m_ObjectHideFlags: 0
  serializedVersion: 2
  m_Scenes: []
  m_configObjects:
    Unity.XR.Oculus.Settings: {fileID: 11400000, guid: 09adb08e8ea9ef8418fc2675f3fb38c5, type: 2}
    com.unity.xr.management.loader_settings: {fileID: 11400000, guid: 7c153668efece774cb9f2a082a701364, type: 2}
